{
  "submitter": "University of Toronto and Arizona State University",
  "division": "closed",
  "system_type": "TO-DO: datacenter or edge",
  "status": "available",
  "system_name": "hpipe",
  "number_of_nodes": 1,
  "host_processors_per_node": 1,
  "host_processor_model_name": "Intel Xeon Processor E5-2650 v4",
  "host_processor_core_count": 12,
  "host_processor_vcpu_count": 24,
  "host_processor_frequency": "2.20 GHz",
  "host_processor_caches": "L1: 32KB I + 32KB D per core, L2 256KB per core, L3 30.72MB per chip",
  "host_memory_capacity": "128GB",
  "host_storage_type": "HDD",
  "host_storage_capacity": "1.8 TB",
  "host_networking": "N/A",
  "host_networking_topology": "N/A",
  "host_memory_configuration": "8 x 16 GB DDR4-2133 MHz",
  "accelerators_per_node": 1,
  "accelerator_model_name": "hpipe",
  "accelerator_host_interconnect": "PCIe 3.0 x16",
  "accelerator_frequency": "TO-DO",
  "accelerator_on-chip_memories": "TO-DO (on-chip memory usage, i.e. M20K and MLAB)",
  "accelerator_memory_configuration": "TO-DO (ex HBM or HBM2)",
  "accelerator_memory_capacity": "TO-DO (off-chip memory usage, i.e. RAM on FPGA)",
  "accelerator_interconnect": "N/A",
  "accelerator_interconnect_topology": "N/A",
  "cooling": "Air-cooled",
  "hw_notes": "",
  "framework": "tensorflow 2.3.0",
  "other_software_stack": "TO-DO (Any software required to run it on the FPGA should go here)",
  "operating_system": "Ubuntu 16.04.6 LTS (Xenial Xerus)",
  "sw_notes": ""
}